rd1101/source/verilog/i2s_TB.vcd
$date
	Wed May 10 10:33:28 2023
$end
$version
	Icarus Verilog
$end
$timescale
	10ps
$end
$scope module i2s_TB $end
$scope module ITX32M $end
$var wire 1 ! i2s_sd_i $end
$var wire 1 " rx_int_o $end
$var wire 6 # wb_adr_i [5:0] $end
$var wire 2 $ wb_bte_i [1:0] $end
$var wire 1 % wb_clk_i $end
$var wire 3 & wb_cti_i [2:0] $end
$var wire 1 ' wb_cyc_i $end
$var wire 16 ( wb_dat_i [15:0] $end
$var wire 1 ) wb_rst_i $end
$var wire 1 * wb_sel_i $end
$var wire 1 + wb_stb_i $end
$var wire 1 , wb_we_i $end
$var wire 1 - zero $end
$var wire 16 . zeros [15:0] $end
$var wire 16 / wb_dat_o [15:0] $end
$var wire 1 0 wb_ack_o $end
$var wire 1 1 tx_int_o $end
$var wire 16 2 sample_data [15:0] $end
$var wire 5 3 sample_addr [4:0] $end
$var wire 1 4 mem_wr_transmitter $end
$var wire 1 5 mem_rd_transmitter $end
$var wire 1 6 intstat_wr $end
$var wire 1 7 intstat_rd $end
$var wire 16 8 intstat_events [15:0] $end
$var wire 16 9 intstat_dout [15:0] $end
$var wire 16 : intmask_bits [15:0] $end
$var wire 1 ; i2s_ws_o $end
$var wire 1 < i2s_sd_o $end
$var wire 1 = i2s_sck_o $end
$var wire 1 > evt_lsbf $end
$var wire 1 ? evt_hsbf $end
$var wire 16 @ data_out [15:0] $end
$var wire 1 A config_wr $end
$var wire 1 B config_rd $end
$var wire 16 C config_dout [15:0] $end
$var wire 16 D config_bits [15:0] $end
$var wire 1 E conf_swap $end
$var wire 6 F conf_res [5:0] $end
$var wire 5 G conf_ratio [4:0] $end
$var wire 1 H conf_inten $end
$var wire 1 I conf_en $end
$scope begin genblk10 $end
$scope module TRANSMITTER_DEC $end
$var wire 1 I conf_en $end
$var wire 5 J conf_ratio [4:0] $end
$var wire 6 K conf_res [5:0] $end
$var wire 1 E conf_swap $end
$var wire 1 = i2s_sck_o $end
$var wire 1 - i2s_sd_i $end
$var wire 1 ; i2s_ws_o $end
$var wire 1 5 mem_rdwr $end
$var wire 1 L receiver $end
$var wire 16 M sample_dat_o [15:0] $end
$var wire 1 % wb_clk_i $end
$var wire 16 N sample_dat_i [15:0] $end
$var wire 5 O sample_addr [4:0] $end
$var reg 8 P adr_cnt [7:0] $end
$var reg 6 Q bit_cnt [5:0] $end
$var reg 6 R bits_to_trx [5:0] $end
$var reg 5 S clk_cnt [4:0] $end
$var reg 16 T data_in [15:0] $end
$var reg 1 ? evt_hsbf $end
$var reg 1 > evt_lsbf $end
$var reg 1 U i2s_clk_en $end
$var reg 1 < i2s_sd_o $end
$var reg 1 V i2s_ws $end
$var reg 1 W imem_rdwr $end
$var reg 1 X neg_edge $end
$var reg 1 Y new_word $end
$var reg 5 Z sd_ctrl [4:0] $end
$var reg 9 [ temp_data [8:0] $end
$var reg 1 \ toggle $end
$var reg 5 ] ws_cnt [4:0] $end
$var reg 1 ^ ws_neg_edge $end
$var reg 1 _ ws_pos_edge $end
$upscope $end
$upscope $end
$scope begin genblk2 $end
$upscope $end
$scope begin genblk4 $end
$scope module TRANSMITTER_WB $end
$var wire 16 ` data_out [15:0] $end
$var wire 1 0 wb_ack_o $end
$var wire 6 a wb_adr_i [5:0] $end
$var wire 2 b wb_bte_i [1:0] $end
$var wire 1 % wb_clk_i $end
$var wire 3 c wb_cti_i [2:0] $end
$var wire 1 ' wb_cyc_i $end
$var wire 1 ) wb_rst_i $end
$var wire 1 * wb_sel_i $end
$var wire 1 + wb_stb_i $end
$var wire 1 , wb_we_i $end
$var wire 16 d wb_dat_o [15:0] $end
$var wire 1 4 mem_wr $end
$var wire 1 e ird $end
$var wire 1 6 intstat_wr $end
$var wire 1 7 intstat_rd $end
$var wire 1 A config_wr $end
$var wire 1 B config_rd $end
$var reg 1 0 iack $end
$var reg 1 f iwr $end
$var reg 16 g rdout [15:0] $end
$upscope $end
$upscope $end
$scope begin genblk6 $end
$scope module TRANSMITTER_ISTAT $end
$var wire 1 % clk $end
$var wire 16 h event_hap [15:0] $end
$var wire 16 i evt_din [15:0] $end
$var wire 1 H evt_en $end
$var wire 16 j evt_mask [15:0] $end
$var wire 1 7 evt_rd $end
$var wire 1 6 evt_wr $end
$var wire 1 ) rst $end
$var wire 16 k zero [15:0] $end
$var wire 16 l evt_internal [15:0] $end
$var wire 16 m evt_dout [15:0] $end
$var reg 1 n evt0 $end
$var reg 1 o evt1 $end
$var reg 1 1 evt_irq $end
$upscope $end
$upscope $end
$scope begin genblk8 $end
$scope module TRANSMITTER_MEM $end
$var wire 1 % clk $end
$var wire 16 p din [15:0] $end
$var wire 5 q rd_addr [4:0] $end
$var wire 1 5 rd_en $end
$var wire 1 ) rst $end
$var wire 5 r wr_addr [4:0] $end
$var wire 1 4 wr_en $end
$var reg 16 s dout [15:0] $end
$upscope $end
$upscope $end
$scope module CONF $end
$var wire 1 % clk $end
$var wire 16 t ctrl_bits [15:0] $end
$var wire 16 u ctrl_din [15:0] $end
$var wire 1 ) rst $end
$var wire 1 A ctrl_wr $end
$var wire 1 B ctrl_rd $end
$var wire 16 v ctrl_dout [15:0] $end
$var reg 16 w ctrl_internal [15:0] $end
$upscope $end
$upscope $end
$upscope $end
$enddefinitions $end
#0
$dumpvars
b0 w
b0 v
b0 u
b0 t
bx s
b0 r
bx q
b0 p
0o
0n
b0 m
b0 l
b0 k
b0 j
b0 i
b0xx h
bx g
0f
0e
bx d
b0 c
b0 b
b0 a
b0 `
x_
x^
bx ]
x\
b100000 [
bx Z
xY
xX
xW
xV
xU
bx T
bx S
bx R
bx Q
bx P
bx O
bx N
bx M
0L
b0 K
b0 J
0I
0H
b0 G
b0 F
0E
b0 D
b0 C
0B
0A
b0 @
x?
x>
x=
x<
x;
b0 :
b0 9
b0xx 8
07
06
x5
04
bx 3
bx 2
x1
00
bx /
b0 .
0-
0,
0+
0*
1)
b0 (
0'
b0 &
0%
b0 $
b0 #
z"
z!
$end
#500
b0 /
b0 d
b0 3
b0 O
b0 q
b0 g
01
0=
0\
0X
b0 S
0U
0^
0_
b0 ]
0;
0V
0<
0?
b0 8
b0 h
0>
b0 P
0Y
b0 R
b0 Q
b0 M
b0 T
b0 Z
05
0W
1%
#1000
0%
#1500
1%
#2000
0%
#2500
1%
#3000
0%
#3500
1%
#4000
0%
#4500
1%
#5000
0%
#5500
1%
#6000
0%
#6500
1%
#7000
0%
#7500
1%
#8000
0%
#8500
1%
#9000
0%
#9500
1%
#10000
0%
#10500
1%
#11000
0%
#11500
1%
#12000
0%
#12500
1%
#13000
0%
#13500
1%
#14000
0%
#14500
1%
#15000
0%
#15500
1%
#16000
0%
#16500
1%
#17000
0%
#17500
1%
#18000
0%
#18500
1%
#19000
0%
#19500
1%
#20000
0)
0%
#20500
1*
1+
1'
1,
b111111111111111 (
b111111111111111 i
b111111111111111 p
b111111111111111 u
b100000 #
b100000 a
1%
#21000
0%
#21500
14
10
1f
1%
#22000
0%
#22500
0B
0e
04
0f
00
0*
0+
0'
0,
b0 (
b0 i
b0 p
b0 u
b0 #
b0 a
1%
#23000
0%
#23500
b1 r
1*
1+
1'
1,
b1000000000000000 (
b1000000000000000 i
b1000000000000000 p
b1000000000000000 u
b100001 #
b100001 a
1%
#24000
0%
#24500
14
1f
10
1%
#25000
0%
#25500
0B
0e
04
b0 r
00
0f
0*
0+
0'
0,
b0 (
b0 i
b0 p
b0 u
b0 #
b0 a
1%
#26000
0%
#26500
b10 r
1*
1+
1'
1,
b111111000001110 (
b111111000001110 i
b111111000001110 p
b111111000001110 u
b100010 #
b100010 a
1%
#27000
0%
#27500
14
10
1f
1%
#28000
0%
#28500
0B
0e
04
b0 r
0f
00
0*
0+
0'
0,
b0 (
b0 i
b0 p
b0 u
b0 #
b0 a
1%
#29000
0%
#29500
b11 r
1*
1+
1'
1,
b1000000111110001 (
b1000000111110001 i
b1000000111110001 p
b1000000111110001 u
b100011 #
b100011 a
1%
#30000
0%
#30500
14
1f
10
1%
#31000
0%
#31500
0B
0e
04
b0 r
00
0f
0*
0+
0'
0,
b0 (
b0 i
b0 p
b0 u
b0 #
b0 a
1%
#32000
0%
#32500
b100 r
1*
1+
1'
1,
b111110000011101 (
b111110000011101 i
b111110000011101 p
b111110000011101 u
b100100 #
b100100 a
1%
#33000
0%
#33500
14
10
1f
1%
#34000
0%
#34500
0B
0e
04
b0 r
0f
00
0*
0+
0'
0,
b0 (
b0 i
b0 p
b0 u
b0 #
b0 a
1%
#35000
0%
#35500
b101 r
1*
1+
1'
1,
b1000001111100010 (
b1000001111100010 i
b1000001111100010 p
b1000001111100010 u
b100101 #
b100101 a
1%
#36000
0%
#36500
14
1f
10
1%
#37000
0%
#37500
0B
0e
04
b0 r
00
0f
0*
0+
0'
0,
b0 (
b0 i
b0 p
b0 u
b0 #
b0 a
1%
#38000
0%
#38500
b110 r
1*
1+
1'
1,
b111101000101100 (
b111101000101100 i
b111101000101100 p
b111101000101100 u
b100110 #
b100110 a
1%
#39000
0%
#39500
14
10
1f
1%
#40000
0%
#40500
0B
0e
04
b0 r
0f
00
0*
0+
0'
0,
b0 (
b0 i
b0 p
b0 u
b0 #
b0 a
1%
#41000
0%
#41500
b111 r
1*
1+
1'
1,
b1000010111010011 (
b1000010111010011 i
b1000010111010011 p
b1000010111010011 u
b100111 #
b100111 a
1%
#42000
0%
#42500
14
1f
10
1%
#43000
0%
#43500
0B
0e
04
b0 r
00
0f
0*
0+
0'
0,
b0 (
b0 i
b0 p
b0 u
b0 #
b0 a
1%
#44000
0%
#44500
b1000 r
1*
1+
1'
1,
b111100000111011 (
b111100000111011 i
b111100000111011 p
b111100000111011 u
b101000 #
b101000 a
1%
#45000
0%
#45500
14
10
1f
1%
#46000
0%
#46500
0B
0e
04
b0 r
0f
00
0*
0+
0'
0,
b0 (
b0 i
b0 p
b0 u
b0 #
b0 a
1%
#47000
0%
#47500
b1001 r
1*
1+
1'
1,
b1000011111000100 (
b1000011111000100 i
b1000011111000100 p
b1000011111000100 u
b101001 #
b101001 a
1%
#48000
0%
#48500
14
1f
10
1%
#49000
0%
#49500
0B
0e
04
b0 r
00
0f
0*
0+
0'
0,
b0 (
b0 i
b0 p
b0 u
b0 #
b0 a
1%
#50000
0%
#50500
b1010 r
1*
1+
1'
1,
b111011001001010 (
b111011001001010 i
b111011001001010 p
b111011001001010 u
b101010 #
b101010 a
1%
#51000
0%
#51500
14
10
1f
1%
#52000
0%
#52500
0B
0e
04
b0 r
0f
00
0*
0+
0'
0,
b0 (
b0 i
b0 p
b0 u
b0 #
b0 a
1%
#53000
0%
#53500
b1011 r
1*
1+
1'
1,
b1000100110110101 (
b1000100110110101 i
b1000100110110101 p
b1000100110110101 u
b101011 #
b101011 a
1%
#54000
0%
#54500
14
1f
10
1%
#55000
0%
#55500
0B
0e
04
b0 r
00
0f
0*
0+
0'
0,
b0 (
b0 i
b0 p
b0 u
b0 #
b0 a
1%
#56000
0%
#56500
b1100 r
1*
1+
1'
1,
b111010001011001 (
b111010001011001 i
b111010001011001 p
b111010001011001 u
b101100 #
b101100 a
1%
#57000
0%
#57500
14
10
1f
1%
#58000
0%
#58500
0B
0e
04
b0 r
0f
00
0*
0+
0'
0,
b0 (
b0 i
b0 p
b0 u
b0 #
b0 a
1%
#59000
0%
#59500
b1101 r
1*
1+
1'
1,
b1000101110100110 (
b1000101110100110 i
b1000101110100110 p
b1000101110100110 u
b101101 #
b101101 a
1%
#60000
0%
#60500
14
1f
10
1%
#61000
0%
#61500
0B
0e
04
b0 r
00
0f
0*
0+
0'
0,
b0 (
b0 i
b0 p
b0 u
b0 #
b0 a
1%
#62000
0%
#62500
b1110 r
1*
1+
1'
1,
b111001001101000 (
b111001001101000 i
b111001001101000 p
b111001001101000 u
b101110 #
b101110 a
1%
#63000
0%
#63500
14
10
1f
1%
#64000
0%
#64500
0B
0e
04
b0 r
0f
00
0*
0+
0'
0,
b0 (
b0 i
b0 p
b0 u
b0 #
b0 a
1%
#65000
0%
#65500
b1111 r
1*
1+
1'
1,
b1000110110010111 (
b1000110110010111 i
b1000110110010111 p
b1000110110010111 u
b101111 #
b101111 a
1%
#66000
0%
#66500
14
1f
10
1%
#67000
0%
#67500
0B
0e
04
b0 r
00
0f
0*
0+
0'
0,
b0 (
b0 i
b0 p
b0 u
b0 #
b0 a
1%
#68000
0%
#68500
b10000 r
1*
1+
1'
1,
b111000001110111 (
b111000001110111 i
b111000001110111 p
b111000001110111 u
b110000 #
b110000 a
1%
#69000
0%
#69500
14
10
1f
1%
#70000
0%
#70500
0B
0e
04
b0 r
0f
00
0*
0+
0'
0,
b0 (
b0 i
b0 p
b0 u
b0 #
b0 a
1%
#71000
0%
#71500
b10001 r
1*
1+
1'
1,
b1000111110001000 (
b1000111110001000 i
b1000111110001000 p
b1000111110001000 u
b110001 #
b110001 a
1%
#72000
0%
#72500
14
1f
10
1%
#73000
0%
#73500
0B
0e
04
b0 r
00
0f
0*
0+
0'
0,
b0 (
b0 i
b0 p
b0 u
b0 #
b0 a
1%
#74000
0%
#74500
b10010 r
1*
1+
1'
1,
b110111010000110 (
b110111010000110 i
b110111010000110 p
b110111010000110 u
b110010 #
b110010 a
1%
#75000
0%
#75500
14
10
1f
1%
#76000
0%
#76500
0B
0e
04
b0 r
0f
00
0*
0+
0'
0,
b0 (
b0 i
b0 p
b0 u
b0 #
b0 a
1%
#77000
0%
#77500
b10011 r
1*
1+
1'
1,
b1001000101111001 (
b1001000101111001 i
b1001000101111001 p
b1001000101111001 u
b110011 #
b110011 a
1%
#78000
0%
#78500
14
1f
10
1%
#79000
0%
#79500
0B
0e
04
b0 r
00
0f
0*
0+
0'
0,
b0 (
b0 i
b0 p
b0 u
b0 #
b0 a
1%
#80000
0%
#80500
b10100 r
1*
1+
1'
1,
b110110010010101 (
b110110010010101 i
b110110010010101 p
b110110010010101 u
b110100 #
b110100 a
1%
#81000
0%
#81500
14
10
1f
1%
#82000
0%
#82500
0B
0e
04
b0 r
0f
00
0*
0+
0'
0,
b0 (
b0 i
b0 p
b0 u
b0 #
b0 a
1%
#83000
0%
#83500
b10101 r
1*
1+
1'
1,
b1001001101101010 (
b1001001101101010 i
b1001001101101010 p
b1001001101101010 u
b110101 #
b110101 a
1%
#84000
0%
#84500
14
1f
10
1%
#85000
0%
#85500
0B
0e
04
b0 r
00
0f
0*
0+
0'
0,
b0 (
b0 i
b0 p
b0 u
b0 #
b0 a
1%
#86000
0%
#86500
b10110 r
1*
1+
1'
1,
b110101010100100 (
b110101010100100 i
b110101010100100 p
b110101010100100 u
b110110 #
b110110 a
1%
#87000
0%
#87500
14
10
1f
1%
#88000
0%
#88500
0B
0e
04
b0 r
0f
00
0*
0+
0'
0,
b0 (
b0 i
b0 p
b0 u
b0 #
b0 a
1%
#89000
0%
#89500
b10111 r
1*
1+
1'
1,
b1001010101011011 (
b1001010101011011 i
b1001010101011011 p
b1001010101011011 u
b110111 #
b110111 a
1%
#90000
0%
#90500
14
1f
10
1%
#91000
0%
#91500
0B
0e
04
b0 r
00
0f
0*
0+
0'
0,
b0 (
b0 i
b0 p
b0 u
b0 #
b0 a
1%
#92000
0%
#92500
b11000 r
1*
1+
1'
1,
b110100010110011 (
b110100010110011 i
b110100010110011 p
b110100010110011 u
b111000 #
b111000 a
1%
#93000
0%
#93500
14
10
1f
1%
#94000
0%
#94500
0B
0e
04
b0 r
0f
00
0*
0+
0'
0,
b0 (
b0 i
b0 p
b0 u
b0 #
b0 a
1%
#95000
0%
#95500
b11001 r
1*
1+
1'
1,
b1001011101001100 (
b1001011101001100 i
b1001011101001100 p
b1001011101001100 u
b111001 #
b111001 a
1%
#96000
0%
#96500
14
1f
10
1%
#97000
0%
#97500
0B
0e
04
b0 r
00
0f
0*
0+
0'
0,
b0 (
b0 i
b0 p
b0 u
b0 #
b0 a
1%
#98000
0%
#98500
b11010 r
1*
1+
1'
1,
b110011011000010 (
b110011011000010 i
b110011011000010 p
b110011011000010 u
b111010 #
b111010 a
1%
#99000
0%
#99500
14
10
1f
1%
#100000
0%
#100500
0B
0e
04
b0 r
0f
00
0*
0+
0'
0,
b0 (
b0 i
b0 p
b0 u
b0 #
b0 a
1%
#101000
0%
#101500
b11011 r
1*
1+
1'
1,
b1001100100111101 (
b1001100100111101 i
b1001100100111101 p
b1001100100111101 u
b111011 #
b111011 a
1%
#102000
0%
#102500
14
1f
10
1%
#103000
0%
#103500
0B
0e
04
b0 r
00
0f
0*
0+
0'
0,
b0 (
b0 i
b0 p
b0 u
b0 #
b0 a
1%
#104000
0%
#104500
b11100 r
1*
1+
1'
1,
b110010011010001 (
b110010011010001 i
b110010011010001 p
b110010011010001 u
b111100 #
b111100 a
1%
#105000
0%
#105500
14
10
1f
1%
#106000
0%
#106500
0B
0e
04
b0 r
0f
00
0*
0+
0'
0,
b0 (
b0 i
b0 p
b0 u
b0 #
b0 a
1%
#107000
0%
#107500
b11101 r
1*
1+
1'
1,
b1001101100101110 (
b1001101100101110 i
b1001101100101110 p
b1001101100101110 u
b111101 #
b111101 a
1%
#108000
0%
#108500
14
1f
10
1%
#109000
0%
#109500
0B
0e
04
b0 r
00
0f
0*
0+
0'
0,
b0 (
b0 i
b0 p
b0 u
b0 #
b0 a
1%
#110000
0%
#110500
b11110 r
1*
1+
1'
1,
b110001011100000 (
b110001011100000 i
b110001011100000 p
b110001011100000 u
b111110 #
b111110 a
1%
#111000
0%
#111500
14
10
1f
1%
#112000
0%
#112500
0B
0e
04
b0 r
0f
00
0*
0+
0'
0,
b0 (
b0 i
b0 p
b0 u
b0 #
b0 a
1%
#113000
0%
#113500
b11111 r
1*
1+
1'
1,
b1001110100011111 (
b1001110100011111 i
b1001110100011111 p
b1001110100011111 u
b111111 #
b111111 a
1%
#114000
0%
#114500
14
1f
10
1%
#115000
0%
#115500
0B
0e
04
b0 r
00
0f
0*
0+
0'
0,
b0 (
b0 i
b0 p
b0 u
b0 #
b0 a
1%
#116000
0%
#116500
1*
1+
1'
1,
b11101000011011 (
b11101000011011 i
b11101000011011 p
b11101000011011 u
1%
#117000
0%
#117500
1A
10
1f
1%
#118000
0%
#118500
b0 @
b0 `
b0 C
b0 v
0B
0A
0e
b11 :
b11 j
1I
1H
b111 G
b111 J
b10000 F
b10000 K
b11101000011011 D
b11101000011011 t
b11101000011011 w
0f
00
0*
0+
0'
0,
b0 (
b0 i
b0 p
b0 u
1%
#119000
0%
#119500
b1111 R
b1 S
1%
#120000
0%
#120500
b10 S
1%
#121000
0%
#121500
b11 S
1%
#122000
0%
#122500
b100 S
1%
#123000
0%
#123500
b101 S
1%
#124000
0%
#124500
b110 S
1%
#125000
0%
#125500
b111 S
1%
#126000
0%
#126500
b1000 S
1%
#127000
0%
#127500
1X
1U
b0 S
1%
#128000
0%
#128500
1=
1\
0U
b1 S
1%
#129000
0%
#129500
b10 S
1%
#130000
0%
#130500
b11 S
1%
#131000
0%
#131500
b100 S
1%
#132000
0%
#132500
b101 S
1%
#133000
0%
#133500
b110 S
1%
#134000
0%
#134500
b111 S
1%
#135000
0%
#135500
b1000 S
1%
#136000
0%
#136500
0X
1U
b0 S
1%
#137000
0%
#137500
b1 ]
0=
0\
0U
b1 S
1%
#138000
0%
#138500
b10 S
1%
#139000
0%
#139500
b11 S
1%
#140000
0%
#140500
b100 S
1%
#141000
0%
#141500
b101 S
1%
#142000
0%
#142500
b110 S
1%
#143000
0%
#143500
b111 S
1%
#144000
0%
#144500
b1000 S
1%
#145000
0%
#145500
1X
1U
b0 S
1%
#146000
0%
#146500
1=
1\
0U
b1 S
1%
#147000
0%
#147500
b10 S
1%
#148000
0%
#148500
b11 S
1%
#149000
0%
#149500
b100 S
1%
#150000
0%
#150500
b101 S
1%
#151000
0%
#151500
b110 S
1%
#152000
0%
#152500
b111 S
1%
#153000
0%
#153500
b1000 S
1%
#154000
0%
#154500
0X
1U
b0 S
1%
#155000
0%
#155500
b10 ]
0=
0\
0U
b1 S
1%
#156000
0%
#156500
b10 S
1%
#157000
0%
#157500
b11 S
1%
#158000
0%
#158500
b100 S
1%
#159000
0%
#159500
b101 S
1%
#160000
0%
#160500
b110 S
1%
#161000
0%
#161500
b111 S
1%
#162000
0%
#162500
b1000 S
1%
#163000
0%
#163500
1X
1U
b0 S
1%
#164000
0%
#164500
1=
1\
0U
b1 S
1%
#165000
0%
#165500
b10 S
1%
#166000
0%
#166500
b11 S
1%
#167000
0%
#167500
b100 S
1%
#168000
0%
#168500
b101 S
1%
#169000
0%
#169500
b110 S
1%
#170000
0%
#170500
b111 S
1%
#171000
0%
#171500
b1000 S
1%
#172000
0%
#172500
0X
1U
b0 S
1%
#173000
0%
#173500
b11 ]
0=
0\
0U
b1 S
1%
#174000
0%
#174500
b10 S
1%
#175000
0%
#175500
b11 S
1%
#176000
0%
#176500
b100 S
1%
#177000
0%
#177500
b101 S
1%
#178000
0%
#178500
b110 S
1%
#179000
0%
#179500
b111 S
1%
#180000
0%
#180500
b1000 S
1%
#181000
0%
#181500
1X
1U
b0 S
1%
#182000
0%
#182500
1=
1\
0U
b1 S
1%
#183000
0%
#183500
b10 S
1%
#184000
0%
#184500
b11 S
1%
#185000
0%
#185500
b100 S
1%
#186000
0%
#186500
b101 S
1%
#187000
0%
#187500
b110 S
1%
#188000
0%
#188500
b111 S
1%
#189000
0%
#189500
b1000 S
1%
#190000
0%
#190500
0X
1U
b0 S
1%
#191000
0%
#191500
b100 ]
0=
0\
0U
b1 S
1%
#192000
0%
#192500
b10 S
1%
#193000
0%
#193500
b11 S
1%
#194000
0%
#194500
b100 S
1%
#195000
0%
#195500
b101 S
1%
#196000
0%
#196500
b110 S
1%
#197000
0%
#197500
b111 S
1%
#198000
0%
#198500
b1000 S
1%
#199000
0%
#199500
1X
1U
b0 S
1%
#200000
0%
#200500
1=
1\
0U
b1 S
1%
#201000
0%
#201500
b10 S
1%
#202000
0%
#202500
b11 S
1%
#203000
0%
#203500
b100 S
1%
#204000
0%
#204500
b101 S
1%
#205000
0%
#205500
b110 S
1%
#206000
0%
#206500
b111 S
1%
#207000
0%
#207500
b1000 S
1%
#208000
0%
#208500
0X
1U
b0 S
1%
#209000
0%
#209500
b101 ]
0=
0\
0U
b1 S
1%
#210000
0%
#210500
b10 S
1%
#211000
0%
#211500
b11 S
1%
#212000
0%
#212500
b100 S
1%
#213000
0%
#213500
b101 S
1%
#214000
0%
#214500
b110 S
1%
#215000
0%
#215500
b111 S
1%
#216000
0%
#216500
b1000 S
1%
#217000
0%
#217500
1X
1U
b0 S
1%
#218000
0%
#218500
1=
1\
0U
b1 S
1%
#219000
0%
#219500
b10 S
1%
#220000
0%
#220500
b11 S
1%
#221000
0%
#221500
b100 S
1%
#222000
0%
#222500
b101 S
1%
#223000
0%
#223500
b110 S
1%
#224000
0%
#224500
b111 S
1%
#225000
0%
#225500
b1000 S
1%
#226000
0%
#226500
0X
1U
b0 S
1%
#227000
0%
#227500
b110 ]
0=
0\
0U
b1 S
1%
#228000
0%
#228500
b10 S
1%
#229000
0%
#229500
b11 S
1%
#230000
0%
#230500
b100 S
1%
#231000
0%
#231500
b101 S
1%
#232000
0%
#232500
b110 S
1%
#233000
0%
#233500
b111 S
1%
#234000
0%
#234500
b1000 S
1%
#235000
0%
#235500
1X
1U
b0 S
1%
#236000
0%
#236500
1=
1\
0U
b1 S
1%
#237000
0%
#237500
b10 S
1%
#238000
0%
#238500
b11 S
1%
#239000
0%
#239500
b100 S
1%
#240000
0%
#240500
b101 S
1%
#241000
0%
#241500
b110 S
1%
#242000
0%
#242500
b111 S
1%
#243000
0%
#243500
b1000 S
1%
#244000
0%
#244500
0X
1U
b0 S
1%
#245000
0%
#245500
b111 ]
0=
0\
0U
b1 S
1%
#246000
0%
#246500
b10 S
1%
#247000
0%
#247500
b11 S
1%
#248000
0%
#248500
b100 S
1%
#249000
0%
#249500
b101 S
1%
#250000
0%
#250500
b110 S
1%
#251000
0%
#251500
b111 S
1%
#252000
0%
#252500
b1000 S
1%
#253000
0%
#253500
1X
1U
b0 S
1%
#254000
0%
#254500
1=
1\
0U
b1 S
1%
#255000
0%
#255500
b10 S
1%
#256000
0%
#256500
b11 S
1%
#257000
0%
#257500
b100 S
1%
#258000
0%
#258500
b101 S
1%
#259000
0%
#259500
b110 S
1%
#260000
0%
#260500
b111 S
1%
#261000
0%
#261500
b1000 S
1%
#262000
0%
#262500
0X
1U
b0 S
1%
#263000
0%
#263500
b1000 ]
0=
0\
0U
b1 S
1%
#264000
0%
#264500
b10 S
1%
#265000
0%
#265500
b11 S
1%
#266000
0%
#266500
b100 S
1%
#267000
0%
#267500
b101 S
1%
#268000
0%
#268500
b110 S
1%
#269000
0%
#269500
b111 S
1%
#270000
0%
#270500
b1000 S
1%
#271000
0%
#271500
1X
1U
b0 S
1%
#272000
0%
#272500
1=
1\
0U
b1 S
1%
#273000
0%
#273500
b10 S
1%
#274000
0%
#274500
b11 S
1%
#275000
0%
#275500
b100 S
1%
#276000
0%
#276500
b101 S
1%
#277000
0%
#277500
b110 S
1%
#278000
0%
#278500
b111 S
1%
#279000
0%
#279500
b1000 S
1%
#280000
0%
#280500
0X
1U
b0 S
1%
#281000
0%
#281500
b1001 ]
0=
0\
0U
b1 S
1%
#282000
0%
#282500
b10 S
1%
#283000
0%
#283500
b11 S
1%
#284000
0%
#284500
b100 S
1%
#285000
0%
#285500
b101 S
1%
#286000
0%
#286500
b110 S
1%
#287000
0%
#287500
b111 S
1%
#288000
0%
#288500
b1000 S
1%
#289000
0%
#289500
1X
1U
b0 S
1%
#290000
0%
#290500
1=
1\
0U
b1 S
1%
#291000
0%
#291500
b10 S
1%
#292000
0%
#292500
b11 S
1%
#293000
0%
#293500
b100 S
1%
#294000
0%
#294500
b101 S
1%
#295000
0%
#295500
b110 S
1%
#296000
0%
#296500
b111 S
1%
#297000
0%
#297500
b1000 S
1%
#298000
0%
#298500
0X
1U
b0 S
1%
#299000
0%
#299500
b1010 ]
0=
0\
0U
b1 S
1%
#300000
0%
#300500
b10 S
1%
#301000
0%
#301500
b11 S
1%
#302000
0%
#302500
b100 S
1%
#303000
0%
#303500
b101 S
1%
#304000
0%
#304500
b110 S
1%
#305000
0%
#305500
b111 S
1%
#306000
0%
#306500
b1000 S
1%
#307000
0%
#307500
1X
1U
b0 S
1%
#308000
0%
#308500
1=
1\
0U
b1 S
1%
#309000
0%
#309500
b10 S
1%
#310000
0%
#310500
b11 S
1%
#311000
0%
#311500
b100 S
1%
#312000
0%
#312500
b101 S
1%
#313000
0%
#313500
b110 S
1%
#314000
0%
#314500
b111 S
1%
#315000
0%
#315500
b1000 S
1%
#316000
0%
#316500
0X
1U
b0 S
1%
#317000
0%
#317500
b1011 ]
0=
0\
0U
b1 S
1%
#318000
0%
#318500
b10 S
1%
#319000
0%
#319500
b11 S
1%
#320000
0%
#320500
b100 S
1%
#321000
0%
#321500
b101 S
1%
#322000
0%
#322500
b110 S
1%
#323000
0%
#323500
b111 S
1%
#324000
0%
#324500
b1000 S
1%
#325000
0%
#325500
1X
1U
b0 S
1%
#326000
0%
#326500
1=
1\
0U
b1 S
1%
#327000
0%
#327500
b10 S
1%
#328000
0%
#328500
b11 S
1%
#329000
0%
#329500
b100 S
1%
#330000
0%
#330500
b101 S
1%
#331000
0%
#331500
b110 S
1%
#332000
0%
#332500
b111 S
1%
#333000
0%
#333500
b1000 S
1%
#334000
0%
#334500
0X
1U
b0 S
1%
#335000
0%
#335500
b1100 ]
0=
0\
0U
b1 S
1%
#336000
0%
#336500
b10 S
1%
#337000
0%
#337500
b11 S
1%
#338000
0%
#338500
b100 S
1%
#339000
0%
#339500
b101 S
1%
#340000
0%
#340500
b110 S
1%
#341000
0%
#341500
b111 S
1%
#342000
0%
#342500
b1000 S
1%
#343000
0%
#343500
1X
1U
b0 S
1%
#344000
0%
#344500
1=
1\
0U
b1 S
1%
#345000
0%
#345500
b10 S
1%
#346000
0%
#346500
b11 S
1%
#347000
0%
#347500
b100 S
1%
#348000
0%
#348500
b101 S
1%
#349000
0%
#349500
b110 S
1%
#350000
0%
#350500
b111 S
1%
#351000
0%
#351500
b1000 S
1%
#352000
0%
#352500
0X
1U
b0 S
1%
#353000
0%
#353500
b1101 ]
0=
0\
0U
b1 S
1%
#354000
0%
#354500
b10 S
1%
#355000
0%
#355500
b11 S
1%
#356000
0%
#356500
b100 S
1%
#357000
0%
#357500
b101 S
1%
#358000
0%
#358500
b110 S
1%
#359000
0%
#359500
b111 S
1%
#360000
0%
#360500
b1000 S
1%
#361000
0%
#361500
1X
1U
b0 S
1%
#362000
0%
#362500
1=
1\
0U
b1 S
1%
#363000
0%
#363500
b10 S
1%
#364000
0%
#364500
b11 S
1%
#365000
0%
#365500
b100 S
1%
#366000
0%
#366500
b101 S
1%
#367000
0%
#367500
b110 S
1%
#368000
0%
#368500
b111 S
1%
#369000
0%
#369500
b1000 S
1%
#370000
0%
#370500
0X
1U
b0 S
1%
#371000
0%
#371500
b1110 ]
0=
0\
0U
b1 S
1%
#372000
0%
#372500
b10 S
1%
#373000
0%
#373500
b11 S
1%
#374000
0%
#374500
b100 S
1%
#375000
0%
#375500
b101 S
1%
#376000
0%
#376500
b110 S
1%
#377000
0%
#377500
b111 S
1%
#378000
0%
#378500
b1000 S
1%
#379000
0%
#379500
1X
1U
b0 S
1%
#380000
0%
#380500
1=
1\
0U
b1 S
1%
#381000
0%
#381500
b10 S
1%
#382000
0%
#382500
b11 S
1%
#383000
0%
#383500
b100 S
1%
#384000
0%
#384500
b101 S
1%
#385000
0%
#385500
b110 S
1%
#386000
0%
#386500
b111 S
1%
#387000
0%
#387500
b1000 S
1%
#388000
0%
